aniso8601==3.0.0
bcrypt==3.1.4
click==6.7
Flask==1.0.2
Flask-RESTful==0.3.6
itsdangerous==0.24
Jinja2==2.10
MarkupSafe==1.0
python-dotenv==0.8.2
pytz==2018.4
six==1.11.0
Werkzeug==0.14.1
wheel==0.31.1
Flask-JWT-Extended==3.10.0
pymongo==3.6.1
flask-mongoengine==0.9.5
mongoengine==0.15.0
python-dateutil==2.7.3
marshmallow==2.15.3

